[
{
    "model": "vehicle.mark",
    "pk": 1,
    "fields": {
        "name": "Audi"
    }
},
{
    "model": "vehicle.mark",
    "pk": 2,
    "fields": {
        "name": "Acura"
    }
},
{
    "model": "vehicle.mark",
    "pk": 3,
    "fields": {
        "name": "Alfa Romeo"
    }
},
{
    "model": "vehicle.mark",
    "pk": 4,
    "fields": {
        "name": "Aston Martin"
    }
},
{
    "model": "vehicle.mark",
    "pk": 5,
    "fields": {
        "name": "Bentley"
    }
},
{
    "model": "vehicle.mark",
    "pk": 6,
    "fields": {
        "name": "Byd"
    }
},
{
    "model": "vehicle.mark",
    "pk": 7,
    "fields": {
        "name": "BMW"
    }
},
{
    "model": "vehicle.mark",
    "pk": 8,
    "fields": {
        "name": "Brilliance"
    }
},
{
    "model": "vehicle.mark",
    "pk": 9,
    "fields": {
        "name": "Honda"
    }
},
{
    "model": "vehicle.mark",
    "pk": 10,
    "fields": {
        "name": "Opel"
    }
},
{
    "model": "vehicle.modelcar",
    "pk": 1,
    "fields": {
        "name": "Audi 100"
    }
},
{
    "model": "vehicle.modelcar",
    "pk": 2,
    "fields": {
        "name": "Acura X"
    }
},
{
    "model": "vehicle.modelcar",
    "pk": 3,
    "fields": {
        "name": "Alfa Romeo Q"
    }
},
{
    "model": "vehicle.modelcar",
    "pk": 4,
    "fields": {
        "name": "Aston Martin 7"
    }
},
{
    "model": "vehicle.modelcar",
    "pk": 5,
    "fields": {
        "name": "Bentley 2"
    }
},
{
    "model": "vehicle.modelcar",
    "pk": 6,
    "fields": {
        "name": "Byd 70"
    }
},
{
    "model": "vehicle.modelcar",
    "pk": 7,
    "fields": {
        "name": "BMW X3"
    }
},
{
    "model": "vehicle.modelcar",
    "pk": 8,
    "fields": {
        "name": "Brilliance W"
    }
},
{
    "model": "vehicle.modelcar",
    "pk": 13,
    "fields": {
        "name": "Honda FIT"
    }
},
{
    "model": "vehicle.modelcar",
    "pk": 14,
    "fields": {
        "name": "Honda SMX"
    }
},
{
    "model": "vehicle.modelcar",
    "pk": 15,
    "fields": {
        "name": "Opel WQ"
    }
},
{
    "model": "vehicle.color",
    "pk": 1,
    "fields": {
        "name": "Белый"
    }
},
{
    "model": "vehicle.color",
    "pk": 2,
    "fields": {
        "name": "Красный"
    }
},
{
    "model": "vehicle.color",
    "pk": 3,
    "fields": {
        "name": "Зеленый"
    }
},
{
    "model": "vehicle.color",
    "pk": 4,
    "fields": {
        "name": "Серый"
    }
},
{
    "model": "vehicle.color",
    "pk": 5,
    "fields": {
        "name": "Желтый"
    }
},
{
    "model": "vehicle.color",
    "pk": 6,
    "fields": {
        "name": "Черный"
    }
},
{
    "model": "vehicle.color",
    "pk": 7,
    "fields": {
        "name": "Коричневый"
    }
},
{
    "model": "vehicle.color",
    "pk": 8,
    "fields": {
        "name": "Оранжевый"
    }
},
{
    "model": "vehicle.color",
    "pk": 9,
    "fields": {
        "name": "Розовый"
    }
},
{
    "model": "vehicle.color",
    "pk": 10,
    "fields": {
        "name": "Белый2"
    }
}
]
